{
  "name": "8-motes",
  "tsch": {
    "generated_packets": 1,
    "queue_size": 10,
    "r_max": 3
  },
  "feasibility": {
    "epsilon": 1e-07
  },
  "seed": 364,
  "throughput": {
    "epsilon": 1e-07
  },
  "ga": {
    "design": "stochastic",
    "type": "make-feasible",
    "max_pdr": 1.0,
    "p_files_dir": "/scratch/antwerpen/202/vsc20268/output_A_11_Q_11_S_40_RMAX_3",
    "mutation_idp_prob": 0.4,
    "infeasible_airtime_val": 10000,
    "hall_of_fame_size": 1000,
    "invalid_tree_throughput_val": -100,
    "results_file_prefix": "ga",
    "results_dir": "solutions/",
    "min_pdr": 0.7,
    "crossover_prob": 1.0,
    "genes_per_node_with_topology": 3,
    "infeasible_ind_throughput_val": -50,
    "genes_per_node_no_topology": 2,
    "invalid_slots_throughput_val": -50,
    "pop_size": 100,
    "mutation_prob": 0.6,
    "generations": 10000,
    "output_x_generations": 100,
    "parent_selection": {
      "pop_best": {},
      "tournament": {
        "size": 2
      },
      "elitism": {
        "percentage": 0.1
      },
      "choice": "tournament"
    },
    "survivor_selection": {
      "pop_best": {},
      "tournament": {
        "size": 2
      },
      "elitism": {
        "percentage": 0.1
      },
      "choice": "tournament"
    }
  },
  "radio": {
    "airtimes": {
      "QPSK_FEC_1_2": 14.24,
      "QAM_16_FEC_3_4": 6.03,
      "QPSK_FEC_3_4": 10.13,
      "QPSK_FEC_1_2_FR_2": 26.56,
      "QAM_16_FEC_1_2": 8.08
    }
  },
  "modulations": {
    "modulations_file": "simulator/SimEngine/modulation.json"
  },
  "topology": {
    "root": 0,
    "topology_file": "topologies/simulator-topology.json"
  }
}